{
  "page": 2,
  "total_results": 10000,
  "total_pages": 500,
  "results": [
    {
      "popularity": 1.598,
      "id": 354596,
      "video": false,
      "vote_count": 5,
      "vote_average": 5.4,
      "title": "End of Summer",
      "release_date": "2013-11-13",
      "original_language": "xx",
      "original_title": "End of Summer",
      "genre_ids": [
        99
      ],
      "backdrop_path": "/ySYpafcIX2PepI9rkVj5fMjWHKc.jpg",
      "adult": false,
      "overview": "A hypnotic and slow-burning journey through the austere landscapes of the island of South Georgia and the Antarctic Peninsula. Shot on black and white super 8 film as a series of mostly static tableaux over a period of 20 days during the waning days of the Antarctic Summer, the film is a startling look at life at the edge of the world.",
      "poster_path": "/rhOBHY1cKEkIeeH3qnwC22FfCiX.jpg"
    },
    {
      "popularity": 49.43,
      "vote_count": 11795,
      "video": false,
      "poster_path": "/io450N7H8iK2M79vZ4QWbm13MlA.jpg",
      "id": 694,
      "adult": false,
      "backdrop_path": "/AdKA2F1SzYPhSZdEbjH1Zh75UVQ.jpg",
      "original_language": "en",
      "original_title": "The Shining",
      "genre_ids": [
        27,
        53
      ],
      "title": "The Shining",
      "vote_average": 8.2,
      "overview": "Jack Torrance accepts a caretaker job at the Overlook Hotel, where he, along with his wife Wendy and their son Danny, must live isolated from the rest of the world for the winter. But they aren't prepared for the madness that lurks within.",
      "release_date": "1980-05-23"
    },
    {
      "popularity": 29.115,
      "vote_count": 7739,
      "video": false,
      "poster_path": "/zmmYdPa8Lxx999Af9vnVP4XQ1V6.jpg",
      "id": 62,
      "adult": false,
      "backdrop_path": "/spoZUN4X1KiOc5S0plOyGAXLNtb.jpg",
      "original_language": "en",
      "original_title": "2001: A Space Odyssey",
      "genre_ids": [
        12,
        9648,
        878
      ],
      "title": "2001: A Space Odyssey",
      "vote_average": 8.1,
      "overview": "Humanity finds a mysterious object buried beneath the lunar surface and sets off to find its origins with the help of HAL 9000, the world's most advanced super computer.",
      "release_date": "1968-04-09"
    },
    {
      "popularity": 28.226,
      "id": 9323,
      "video": false,
      "vote_count": 1952,
      "vote_average": 7.9,
      "title": "Ghost in the Shell",
      "release_date": "1995-11-18",
      "original_language": "ja",
      "original_title": "GHOST IN THE SHELL",
      "genre_ids": [
        28,
        16,
        878
      ],
      "backdrop_path": "/m1LUdsYnFThcrbvRzlpbsFioEQT.jpg",
      "adult": false,
      "overview": "In the year 2029, the barriers of our world have been broken down by the net and by cybernetics, but this brings new vulnerability to humans in the form of brain-hacking. When a highly-wanted hacker known as 'The Puppetmaster' begins involving them in politics, Section 9, a group of cybernetically enhanced cops, are called in to investigate and stop the Puppetmaster.",
      "poster_path": "/9gC88zYUBARRSThcG93MvW14sqx.jpg"
    },
    {
      "popularity": 15.911,
      "id": 843,
      "video": false,
      "vote_count": 1212,
      "vote_average": 8.1,
      "title": "In the Mood for Love",
      "release_date": "2000-05-22",
      "original_language": "cn",
      "original_title": "花樣年華",
      "genre_ids": [
        18,
        10749
      ],
      "backdrop_path": "/n4GJFGzsc7NinI1VeGDXIcQjtU2.jpg",
      "adult": false,
      "overview": "A melancholy story set in Hong Kong in 1962. A woman and a man who live in the same crowded apartment building discover that their husband and wife are having an affair.",
      "poster_path": "/iYypPT4bhqXfq1b6EnmxvRt6b2Y.jpg"
    },
    {
      "popularity": 11.227,
      "vote_count": 1237,
      "video": false,
      "poster_path": "/dBqp1SxlqnJEHYDM9sNelXoQsO1.jpg",
      "id": 837,
      "adult": false,
      "backdrop_path": "/rjinOPH5Mlcw6d59CrnqHKFEVfS.jpg",
      "original_language": "en",
      "original_title": "Videodrome",
      "genre_ids": [
        27,
        9648,
        878
      ],
      "title": "Videodrome",
      "vote_average": 7.3,
      "overview": "As the president of a trashy TV channel, Max Renn is desperate for new programming to attract viewers. When he happens upon \"Videodrome,\" a TV show dedicated to gratuitous torture and punishment, Max sees a potential hit and broadcasts the show on his channel. However, after his girlfriend auditions for the show and never returns, Max investigates the truth behind Videodrome and discovers that the graphic violence may not be as fake as he thought.",
      "release_date": "1983-02-04"
    },
    {
      "popularity": 6.559,
      "vote_count": 15,
      "video": false,
      "poster_path": "/bgpeMEIaKC1ghHoG8fbxNv6KHsT.jpg",
      "id": 333360,
      "adult": false,
      "backdrop_path": "/zCxoMhuS6gRne0dBYCkLTykfEX2.jpg",
      "original_language": "en",
      "original_title": "Peggy Guggenheim: Art Addict",
      "genre_ids": [
        99
      ],
      "title": "Peggy Guggenheim: Art Addict",
      "vote_average": 6.9,
      "overview": "Bouncing between Europe and the United States as often as she would between lovers, Peggy Guggenheim’s life was as swirling as the design of her uncle’s museum, and reads more like fiction than any reality imaginable. Peggy Guggenheim – Art Addict offers a rare look into Guggenheim’s world: blending the abstract, the colorful, the surreal and the salacious, to portray a life that was as complex and unpredictable as the artwork Peggy revered and the artists she pushed forward.",
      "release_date": "2015-11-06"
    },
    {
      "popularity": 14.937,
      "vote_count": 2117,
      "video": false,
      "poster_path": "/d0PibPzCK4fVikjoD1PqHovbvkt.jpg",
      "id": 68,
      "adult": false,
      "backdrop_path": "/ziRWOYnl6e2JUaHYmFLR1kfcECM.jpg",
      "original_language": "en",
      "original_title": "Brazil",
      "genre_ids": [
        35,
        878
      ],
      "title": "Brazil",
      "vote_average": 7.7,
      "overview": "Low-level bureaucrat Sam Lowry escapes the monotony of his day-to-day life through a recurring daydream of himself as a virtuous hero saving a beautiful damsel. Investigating a case that led to the wrongful arrest and eventual death of an innocent man instead of wanted terrorist Harry Tuttle, he meets the woman from his daydream, and in trying to help her gets caught in a web of mistaken identities, mindless bureaucracy and lies.",
      "release_date": "1985-02-20"
    },
    {
      "popularity": 0.6,
      "vote_count": 0,
      "video": false,
      "poster_path": null,
      "id": 755681,
      "adult": false,
      "backdrop_path": null,
      "original_language": "en",
      "original_title": "Sambal Belacan in San Francisco",
      "genre_ids": [
        99
      ],
      "title": "Sambal Belacan in San Francisco",
      "vote_average": 0,
      "overview": "“Sambal Belacan in San Francisco” is a documentary which revolves around three women from Singapore who move to San Francisco in the 1980s to enjoy the lifestyle they wanted.",
      "release_date": "1997-06-21"
    },
    {
      "popularity": 15.102,
      "vote_count": 1523,
      "video": false,
      "poster_path": "/ngnybFTuopfbfmmEeX9jjBQQmF6.jpg",
      "id": 8337,
      "adult": false,
      "backdrop_path": "/3k2DQBryXzaL7DoAtu6veWWluwt.jpg",
      "original_language": "en",
      "original_title": "They Live",
      "genre_ids": [
        28,
        878
      ],
      "title": "They Live",
      "vote_average": 7.3,
      "overview": "Nada, a wanderer without meaning in his life, discovers a pair of sunglasses capable of showing the world the way it truly is. As he walks the streets of Los Angeles, Nada notices that both the media and the government are comprised of subliminal messages meant to keep the population subdued, and that most of the social elite are skull-faced aliens bent on world domination. With this shocking discovery, Nada fights to free humanity from the mind-controlling aliens.",
      "release_date": "1988-11-23"
    },
    {
      "popularity": 6.108,
      "id": 26513,
      "video": false,
      "vote_count": 86,
      "vote_average": 7.5,
      "title": "Punishment Park",
      "release_date": "1971-05-09",
      "original_language": "en",
      "original_title": "Punishment Park",
      "genre_ids": [
        18,
        53
      ],
      "backdrop_path": "/AaMLH7UmnV6jQN1uLWWeeXPGSD7.jpg",
      "adult": false,
      "overview": "In this fictional documentary, U.S. prisons are at capacity, and President Nixon declares a state of emergency. All new prisoners, most of whom are connected to the antiwar movement, are now given the choice of jail time or spending three days in Punishment Park, where they will be hunted for sport by federal authorities. The prisoners invariably choose the latter option, but learn that, between the desert heat and the brutal police officers, their chances of survival are slim.",
      "poster_path": "/fPGnMnp80ycqUHdgP1T3nzCyYKe.jpg"
    },
    {
      "popularity": 18.88,
      "id": 11423,
      "video": false,
      "vote_count": 1827,
      "vote_average": 8.1,
      "title": "Memories of Murder",
      "release_date": "2003-05-02",
      "original_language": "ko",
      "original_title": "살인의 추억",
      "genre_ids": [
        80,
        18,
        53
      ],
      "backdrop_path": "/97SrVeGiR5Zrkp36i2krQVGDda.jpg",
      "adult": false,
      "overview": "1986 Gyunggi Province. The body of a young woman is found brutally raped and murdered. Two months later, a series of rapes and murders commences under similar circumstances. And in a country that had never known such crimes, the dark whispers about a serial murderer grow louder. A special task force is set up in the area, with two local detectives Park Doo-Man and Jo Young-Goo joined by a detective from Seoul who requested to be assigned to the case.",
      "poster_path": "/dVZJByLhVpbKp4YKAChM12MxSNn.jpg"
    },
    {
      "popularity": 15.187,
      "vote_count": 566,
      "video": false,
      "poster_path": "/90A8sXK9QZVJ7Rj8nLdsj5NuO5s.jpg",
      "id": 25237,
      "adult": false,
      "backdrop_path": "/oIQMt3Q6Qa37YD0JOdYkrIAPYDk.jpg",
      "original_language": "ru",
      "original_title": "Иди и смотри",
      "genre_ids": [
        18,
        36,
        10752
      ],
      "title": "Come and See",
      "vote_average": 8.3,
      "overview": "The invasion of a village in Byelorussia by German forces sends young Florya into the forest to join the weary Resistance fighters, against his family's wishes. There he meets a girl, Glasha, who accompanies him back to his village. On returning home, Florya finds his family and fellow peasants massacred. His continued survival amidst the brutal debris of war becomes increasingly nightmarish, a battle between despair and hope.",
      "release_date": "1985-09-03"
    },
    {
      "popularity": 0.6,
      "vote_count": 0,
      "video": false,
      "poster_path": "/1D6hwlssyXSBec5Qwq2WTQVPABo.jpg",
      "id": 756027,
      "adult": false,
      "backdrop_path": "/6XzIcEMxgTr00oV0KMPIKz21PNN.jpg",
      "original_language": "en",
      "original_title": "Laundriness",
      "genre_ids": [
        35,
        99
      ],
      "title": "Laundriness",
      "vote_average": 0,
      "overview": "Serif, the manager of a launderette in London’s Bethnal Green, dedicates her time to her regulars. Serving cups of tea and listening to their stories, Serif enriches their lives by helping the local elderly community.\r Laundriness is a simple and sensitive observational documentary about the meaning of life, fate, hope and regrets.",
      "release_date": "2011-07-01"
    },
    {
      "popularity": 19.882,
      "id": 884,
      "video": false,
      "vote_count": 516,
      "vote_average": 6.5,
      "title": "Crash",
      "release_date": "1996-07-17",
      "original_language": "en",
      "original_title": "Crash",
      "genre_ids": [
        18,
        53,
        10749
      ],
      "backdrop_path": "/tmfSWk7ZKla721Ie2O5zuyNdz8k.jpg",
      "adult": false,
      "overview": "After getting into a serious car accident, a TV director discovers an underground sub-culture of scarred, omnisexual car-crash victims who use car accidents and the raw sexual energy they produce to try to rejuvenate his sex life with his wife.",
      "poster_path": "/5lDENqycd6WMXMPtD9GxWfYh4bq.jpg"
    },
    {
      "popularity": 3.962,
      "vote_count": 5,
      "video": false,
      "poster_path": "/1HP9zbx6l7E1SWuPtjmFb6w4oDF.jpg",
      "id": 170924,
      "adult": false,
      "backdrop_path": "/hLz6rC9u1CRf01CfKT6Boef6SzX.jpg",
      "original_language": "tl",
      "original_title": "Macho Dancer",
      "genre_ids": [
        18
      ],
      "title": "Macho Dancer",
      "vote_average": 6.2,
      "overview": "Abandoned by his American lover, a handsome teenager from the mountains journeys to Manila in an effort to support his family. With a popular call boy as his mentor, Paul enters the glittering world of male strippers, prostitution, drugs, sexual slavery, police corruption and murder. Teeming with sex and Asian beefcake, Macho Dancer is a searing indictment of the hypocrisy and police corruption rampant under both the Marcos and Aquino regimes.",
      "release_date": "1989-01-18"
    },
    {
      "popularity": 12,
      "id": 468,
      "video": false,
      "vote_count": 668,
      "vote_average": 7.1,
      "title": "My Own Private Idaho",
      "release_date": "1991-02-01",
      "original_language": "en",
      "original_title": "My Own Private Idaho",
      "genre_ids": [
        18,
        12
      ],
      "backdrop_path": "/stSaFz5CtMXwIj3r4MDjqxqWRot.jpg",
      "adult": false,
      "overview": "In this loose adaptation of Shakespeare's \"Henry IV,\" Mike Waters is a gay hustler afflicted with narcolepsy. Scott Favor is the rebellious son of a mayor. Together, the two travel from Portland, Oregon to Idaho and finally to the coast of Italy in a quest to find Mike's estranged mother. Along the way they turn tricks for money and drugs, eventually attracting the attention of a wealthy benefactor and sexual deviant.",
      "poster_path": "/uJY5RGgU1DMTpxFjJ4ccaUzJH2C.jpg"
    },
    {
      "popularity": 0.621,
      "id": 754160,
      "video": false,
      "vote_count": 1,
      "vote_average": 2,
      "title": "Apuntes sobre la tortura y otras formas de diálogo",
      "release_date": "1968-01-01",
      "original_language": "es",
      "original_title": "Apuntes sobre la tortura y otras formas de diálogo",
      "genre_ids": [
        18
      ],
      "backdrop_path": null,
      "adult": false,
      "overview": "In a country subjected to a cruel dictatorship, a political activist is savagely tortured, unleashing the indignation of certain leftist intellectuals.",
      "poster_path": "/g8j3DBvsxxF4wURzGUIJiO8sTBr.jpg"
    },
    {
      "popularity": 0.6,
      "vote_count": 0,
      "video": false,
      "poster_path": "/1LLQp4qgz9uYkxBnxuxQXjpoUmc.jpg",
      "id": 753884,
      "adult": false,
      "backdrop_path": "/iOveqPIqPYJa7OybnkOAFohTN7E.jpg",
      "original_language": "pt",
      "original_title": "No Mar",
      "genre_ids": [
        18
      ],
      "title": "At Sea",
      "vote_average": 0,
      "overview": "No Mar is a film about Cecília, the only teacher on a small fishing island. One fateful morning Cecília's daughter Maria asks her best friend Lúcia to cover for her as she goes to the beach to watch her father's boat come in. She never returns. Cecília struggles to deal with the guilt of her daughters death and attempts to embrace the impoverished Lúcia. Lúcia's own struggle with her friends death and eventual confession, forces Cecília to reconcile with her own grief and loss.",
      "release_date": "2013-10-22"
    },
    {
      "popularity": 2.99,
      "id": 567910,
      "video": false,
      "vote_count": 1,
      "vote_average": 10,
      "title": "The Show",
      "release_date": "2016-03-06",
      "original_language": "en",
      "original_title": "The Show",
      "genre_ids": [
        18,
        14
      ],
      "backdrop_path": null,
      "adult": false,
      "overview": "Inhabited by vampires and masked avengers; and a black hole that lies just beneath the surface of this seemingly peaceful city.",
      "poster_path": "/v9HhiF2cDzjFNtX3ik5tJrhgzMy.jpg"
    }
  ]
}