{
  "page": 1,
  "total_results": 10000,
  "total_pages": 500,
  "results": [
    {
      "popularity": 1.492,
      "vote_count": 11,
      "video": false,
      "poster_path": "/pt2SbE1UHMtrX69jAqHMIfPYdXQ.jpg",
      "id": 136368,
      "adult": false,
      "backdrop_path": "/gufOR2Ps7W7gsPp4fSMpZAWTMI.jpg",
      "original_language": "th",
      "original_title": "เอคโค่ จิ๋วก้องโลก",
      "genre_ids": [
        12,
        16,
        10751
      ],
      "title": "Adventure Planet",
      "vote_average": 5.4,
      "overview": "Story of the adventures of three young men from two of the world's metropolis, New State Trinity Capital and Karen village in Northern Thailand. To help save the world from disaster recovery due to global warming.",
      "release_date": "2012-08-01"
    },
    {
      "popularity": 6.628,
      "id": 1611,
      "video": false,
      "vote_count": 99,
      "vote_average": 6.4,
      "title": "The Miracle of Bern",
      "release_date": "2003-10-15",
      "original_language": "de",
      "original_title": "Das Wunder von Bern",
      "genre_ids": [
        18,
        35
      ],
      "backdrop_path": "/uQRMbvfrMu0rt6cah5WzFpr44eg.jpg",
      "adult": false,
      "overview": "The movie deals with the championship-winning German soccer team of 1954. Its story is linked with two others: The family of a young boy is split due to the events in World War II, and the father returns from Russia after eleven years. The second story is about a reporter and his wife reporting from the tournament.",
      "poster_path": "/ujNucP3lk3VpJAswjNBUc0DYHPT.jpg"
    },
    {
      "popularity": 2.864,
      "vote_count": 6,
      "video": false,
      "poster_path": "/21EIQjnnye94SjoIWrdilhcbKmL.jpg",
      "id": 108183,
      "adult": false,
      "backdrop_path": null,
      "original_language": "en",
      "original_title": "In the Aftermath",
      "genre_ids": [
        16,
        18,
        14,
        878
      ],
      "title": "In the Aftermath",
      "vote_average": 4.8,
      "overview": "In a radiation-soaked wasteland, two surviving soldiers, Frank and Goose, search for essential supplies amid the rubble.  After a violent confrontation, Frank is haunted by visions of an angelic young girl holding a giant egg, herself a refugee from another world altogether.  Could the egg be the key to saving both their world?",
      "release_date": "1988-11-08"
    },
    {
      "popularity": 22.83,
      "vote_count": 8665,
      "video": false,
      "poster_path": "/fhQoQfejY1hUcwyuLgpBrYs6uFt.jpg",
      "id": 141,
      "adult": false,
      "backdrop_path": "/8eLXy49T36e0e1YhYvUQOCXNRhm.jpg",
      "original_language": "en",
      "original_title": "Donnie Darko",
      "genre_ids": [
        18,
        14,
        9648
      ],
      "title": "Donnie Darko",
      "vote_average": 7.8,
      "overview": "After narrowly escaping a bizarre accident, a troubled teenager is plagued by visions of a large bunny rabbit that manipulates him to commit a series of crimes.",
      "release_date": "2001-10-26"
    },
    {
      "popularity": 11.428,
      "vote_count": 767,
      "video": false,
      "poster_path": "/i93eZj1nSlorJ1miNkpn4zLKRj0.jpg",
      "id": 252512,
      "adult": false,
      "backdrop_path": "/9JJJOq1YuhUpC3wRgeEYn85UPbi.jpg",
      "original_language": "en",
      "original_title": "While We're Young",
      "genre_ids": [
        35,
        18,
        9648
      ],
      "title": "While We're Young",
      "vote_average": 5.9,
      "overview": "An uptight documentary filmmaker and his wife find their lives loosened up a bit after befriending a free-spirited younger couple.",
      "release_date": "2014-09-28"
    },
    {
      "popularity": 3.224,
      "vote_count": 27,
      "video": false,
      "poster_path": "/mM0oLfNPUYHfvGMVzSmtkYpNpg1.jpg",
      "id": 54333,
      "adult": false,
      "backdrop_path": null,
      "original_language": "cs",
      "original_title": "S čerty nejsou žerty",
      "genre_ids": [
        12,
        35,
        14,
        10751
      ],
      "title": "Give the Devil His Due",
      "vote_average": 7.4,
      "overview": "Dorota, a bad woman married the miller, out of sheer greed drives him to death. She then took the mill away from his son Peter and threw him out of the hime. Lucifer, who is known to rule in hell, sends out the devil Janek. He is supposed to fetch Dorota because the measure of her earthly sins is overflowing. But the devil himself can not handle this evil woman and flees to the military. There he meets Peter. By joining forces, they finally succeed in transporting the wicked Dorota to hell. Since then hell is hell. But for Peter, who is suddenly in possession of a magic mantle, begins a nice time, because strangely, the prince shows great interest in him.",
      "release_date": "1985-10-01"
    },
    {
      "popularity": 2.422,
      "vote_count": 12,
      "video": false,
      "poster_path": "/mbhzRBKASkaR785tsNmbqjhcgm4.jpg",
      "id": 118497,
      "adult": false,
      "backdrop_path": null,
      "original_language": "cs",
      "original_title": "Kočár do Vídně",
      "genre_ids": [
        18,
        10752
      ],
      "title": "Carriage to Vienna",
      "vote_average": 7.2,
      "overview": "A WW2 story of a young Austrian soldier running from the Russian army and a woman whom he forces to come along in order to save his wounded mate.",
      "release_date": "1966-11-11"
    },
    {
      "popularity": 25.091,
      "vote_count": 3700,
      "video": false,
      "poster_path": "/wVbeL6fkbTKSmNfalj4VoAUUqJv.jpg",
      "id": 861,
      "adult": false,
      "backdrop_path": "/hVbgfpmedasebOF3H0kZkinXafa.jpg",
      "original_language": "en",
      "original_title": "Total Recall",
      "genre_ids": [
        28,
        12,
        878
      ],
      "title": "Total Recall",
      "vote_average": 7.2,
      "overview": "Construction worker Douglas Quaid discovers a memory chip in his brain during a virtual-reality trip. He also finds that his past has been invented to conceal a plot of planetary domination. Soon, he's off to Mars to find out who he is and who planted the chip.",
      "release_date": "1990-06-01"
    },
    {
      "popularity": 6.809,
      "vote_count": 241,
      "video": false,
      "poster_path": "/q54AiTMgbG25uuyaXnI9FEm0brm.jpg",
      "id": 266082,
      "adult": false,
      "backdrop_path": "/yJ9HQ4OrFouSj8kRF9opf8s7yGE.jpg",
      "original_language": "fr",
      "original_title": "Bande de filles",
      "genre_ids": [
        18
      ],
      "title": "Girlhood",
      "vote_average": 6.4,
      "overview": "Oppressed by her family setting, dead-end school prospects and the boys law in the neighborhood, Marieme starts a new life after meeting a group of three free-spirited girls. She changes her name, her dress code, and quits school to be accepted in the gang, hoping that this will be a way to freedom.",
      "release_date": "2014-06-27"
    },
    {
      "popularity": 8.247,
      "id": 25756,
      "video": false,
      "vote_count": 74,
      "vote_average": 5.9,
      "title": "Clownhouse",
      "release_date": "1989-01-01",
      "original_language": "en",
      "original_title": "Clownhouse",
      "genre_ids": [
        27
      ],
      "backdrop_path": "/c26CQTrAyEu8mjVqaAXv2upfzMv.jpg",
      "adult": false,
      "overview": "Just before Halloween, three young brothers alone in a big house are menaced by three escaped mental patients who have murdered some traveling circus clowns and taken their identities.",
      "poster_path": "/yV1oYIxdbA6dcCp7FtkvJdhPJT2.jpg"
    },
    {
      "popularity": 11.577,
      "vote_count": 125,
      "video": false,
      "poster_path": "/aaajiBpeBVbVwovpSQKaMfKRGKw.jpg",
      "id": 26955,
      "adult": false,
      "backdrop_path": "/eqg6TiuXNW7eMLhQTd4BMSfpxWy.jpg",
      "original_language": "ko",
      "original_title": "오아시스",
      "genre_ids": [
        18,
        10749
      ],
      "title": "Oasis",
      "vote_average": 7.8,
      "overview": "Oasis is a love story of two young people abandoned by families. A young man released from prison visits the widow of the man he killed drunk-driving. There he meets her daughter, wheelchair bound with cerebral palsy. Will these two lost people find a way to make their relationship work?",
      "release_date": "2002-08-15"
    },
    {
      "popularity": 0.6,
      "vote_count": 0,
      "video": false,
      "poster_path": "/v7WYLLFme3RPyS2i2nz9oWzrTXg.jpg",
      "id": 728189,
      "adult": false,
      "backdrop_path": "/uUtjDYEKySJrEXHZHJAPsO13jGx.jpg",
      "original_language": "ja",
      "original_title": "麗猫伝説",
      "genre_ids": [
        10770
      ],
      "title": "Legend of the Cat Monster",
      "vote_average": 0,
      "overview": "In 1983, Nobuhiko Ōbayashi invited Takako Irie and her daughter, Wakaba Irie, to Onomichi to make this homage to the bakeneko movies.",
      "release_date": "1983-08-30"
    },
    {
      "popularity": 3.278,
      "vote_count": 0,
      "video": false,
      "poster_path": "/5y8wM0DyzZVTxBSlu4zUqAouLM5.jpg",
      "id": 709660,
      "adult": false,
      "backdrop_path": "/34bwcLBIxANh5WRHUxRMevKyANz.jpg",
      "original_language": "en",
      "original_title": "America's Greatest Animals",
      "genre_ids": [
        99
      ],
      "title": "America's Greatest Animals",
      "vote_average": 0,
      "overview": "America's Greatest Animals takes us across North America on a revelatory mission: which of the continent's landmark creatures deserve to make the list?",
      "release_date": "2012-05-27"
    },
    {
      "popularity": 0.6,
      "vote_count": 0,
      "video": false,
      "poster_path": null,
      "id": 752494,
      "adult": false,
      "backdrop_path": null,
      "original_language": "pl",
      "original_title": "Kreatury",
      "genre_ids": [
        16
      ],
      "title": "Creatures",
      "vote_average": 0,
      "overview": "Creatures is a grotesque love story about two sweethearts who try to adjust to the black and white environment they live in. During their search for acceptance they conceal their distinctive features, but they can't hide their true nature.",
      "release_date": "2015-03-04"
    },
    {
      "popularity": 0.6,
      "vote_count": 0,
      "video": false,
      "poster_path": null,
      "id": 752496,
      "adult": false,
      "backdrop_path": null,
      "original_language": "pl",
      "original_title": "PŁOTY",
      "genre_ids": [
        16
      ],
      "title": "Fences",
      "vote_average": 0,
      "overview": "This wonderful Polish non-narrative animation takes as its theme the constriction and confinement in which we often find ourselves. Viewers will be able to consider when barriers and borders are and are not necessary.",
      "release_date": "2015-10-26"
    },
    {
      "popularity": 15.711,
      "id": 10110,
      "video": false,
      "vote_count": 1175,
      "vote_average": 7.5,
      "title": "Empire of the Sun",
      "release_date": "1987-12-09",
      "original_language": "en",
      "original_title": "Empire of the Sun",
      "genre_ids": [
        18,
        36,
        10752
      ],
      "backdrop_path": "/l1HWd2rQ0XDNP9FUT4ZQJIQdEgp.jpg",
      "adult": false,
      "overview": "Jamie Graham, a privileged English boy, is living in Shanghai when the Japanese invade and force all foreigners into prison camps. Jamie is captured with an American sailor, who looks out for him while they are in the camp together. Even though he is separated from his parents and in a hostile environment, Jamie maintains his dignity and youthful spirits, providing a beacon of hope for the others held captive with him.",
      "poster_path": "/gEaCzjwHoPgyQFcwHql7o5YLHAU.jpg"
    },
    {
      "popularity": 13.464,
      "id": 903,
      "video": false,
      "vote_count": 830,
      "vote_average": 7.8,
      "title": "Cool Hand Luke",
      "release_date": "1967-06-22",
      "original_language": "en",
      "original_title": "Cool Hand Luke",
      "genre_ids": [
        80,
        18
      ],
      "backdrop_path": "/syGjgODx7pJb4tF1ipwTwrRdJxm.jpg",
      "adult": false,
      "overview": "When petty criminal Luke Jackson is sentenced to two years in a Florida prison farm, he doesn't play by the rules of either the sadistic warden or the yard's resident heavy, Dragline, who ends up admiring the new guy's unbreakable will. Luke's bravado, even in the face of repeated stints in the prison's dreaded solitary confinement cell, \"the box,\" make him a rebel hero to his fellow convicts and a thorn in the side of the prison officers.",
      "poster_path": "/sqelBKOEdYruo497Jx6SAC3jBMY.jpg"
    },
    {
      "popularity": 13.963,
      "id": 968,
      "video": false,
      "vote_count": 1747,
      "vote_average": 7.8,
      "title": "Dog Day Afternoon",
      "release_date": "1975-09-21",
      "original_language": "en",
      "original_title": "Dog Day Afternoon",
      "genre_ids": [
        80,
        18,
        53
      ],
      "backdrop_path": "/VA2MFovOSgWdS6cz1FsdfvHd6X.jpg",
      "adult": false,
      "overview": "Based on the true story of would-be Brooklyn bank robbers John Wojtowicz and Salvatore Naturale. Sonny and Sal attempt a bank heist which quickly turns sour and escalates into a hostage situation and stand-off with the police. As Sonny's motives for the robbery are slowly revealed and things become more complicated, the heist turns into a media circus.",
      "poster_path": "/mavrhr0ig2aCRR8d48yaxtD5aMQ.jpg"
    },
    {
      "popularity": 13.256,
      "id": 37094,
      "video": false,
      "vote_count": 2219,
      "vote_average": 7.3,
      "title": "Falling Down",
      "release_date": "1993-02-26",
      "original_language": "en",
      "original_title": "Falling Down",
      "genre_ids": [
        80,
        18,
        53
      ],
      "backdrop_path": "/f9D8GTDKYwHllIO4st4UsRbn9gC.jpg",
      "adult": false,
      "overview": "On the day of his daughter's birthday, William \"D-Fens\" Foster is trying to get to the home of his estranged ex-wife to see his daughter. His car breaks down, so he leaves his car in a traffic jam in Los Angeles and decides to walk. He goes to a convenience store and tries to get some change for a phone call, but the Korean owner does not oblige, tipping Foster over the edge. The unstable Foster, so frustrated with the various flaws he sees in society, begins to psychotically and violently lash out against them.",
      "poster_path": "/7ujqyF96Zg3rfrsh9M0cEF0Yzqj.jpg"
    },
    {
      "popularity": 0.6,
      "vote_count": 0,
      "video": false,
      "poster_path": "/tiOzBRyJc77CJnV71MFc6aMvBCI.jpg",
      "id": 737953,
      "adult": false,
      "backdrop_path": "/y0uQtNd0MkmHdJYoW19hYuFooW6.jpg",
      "original_language": "xx",
      "original_title": "Bolshoi Ballet: The Lady of the Camellias",
      "genre_ids": [
        10402
      ],
      "title": "Bolshoi Ballet: The Lady of the Camellias",
      "vote_average": 0,
      "overview": "Armand Duval finds himself at the auction of the famous courtesan Marguerite Gautier’s possessions after she passed away. She was Armand’s true love, and the vision of her belongings awakens vivid memories of their turbulent love story.  Choreographer John Neumeier adapts Alexandre Dumas fils’s timeless novel The Lady of the Camellias for the stage with great sensitivity and emotional depth in his work of rare beauty. As the troubled courtesan Marguerite, superstar prima Svetlana Zakharova and Hamburg Ballet’s guest star Edvin Revazov as Armand bring the passionate drama to new emotional heights accompanied by Chopin’s fantastic score.  Captured live in Moscow on December 6, 2015, for the Bolshoi Ballet's 2015/2016 cinema season. Encore screenings of this recording were released during the 2017/2018 and 2020/2021 cinema seasons.",
      "release_date": "2015-12-06"
    }
  ]
}